{
	"id": "08fec875-fbd3-4424-bda0-9ff7c5eae51c",
	"name": "Foursquare Places API Dott",
	"values": [
		{
			"key": "client_id",
			"value": "2ZXYYSO2OVECZL2IWDI3ISSGN4M4XCCYVJHWOMEZJ55VR12Q",
			"enabled": true
		},
		{
			"key": "client_secret",
			"value": "5G4FXD4LQ3OP5M3A0CY44UCVQ0T4TLFBMVOFY2WYSTT1G1JP",
			"enabled": true
		},
		{
			"key": "v",
			"value": "20190425",
			"enabled": true
		},
		{
			"key": "VENUE_ID",
			"value": "56b874be498e1798d766b009",
			"enabled": true
		}
	],
	"_postman_variable_scope": "environment",
	"_postman_exported_at": "2019-09-27T00:14:11.335Z",
	"_postman_exported_using": "Postman/7.8.0"
}