{
	"info": {
		"_postman_id": "7d9fe4b4-5656-41cd-a908-59f3114ad781",
		"name": "Foursquare Dott",
		"schema": "https://schema.getpostman.com/json/collection/v2.1.0/collection.json"
	},
	"item": [
		{
			"name": "Get Venue Categories",
			"request": {
				"method": "GET",
				"header": [],
				"url": {
					"raw": "https://api.foursquare.com/v2/venues/categories?client_id={{client_id}}&client_secret={{client_secret}}&v={{v}}",
					"protocol": "https",
					"host": [
						"api",
						"foursquare",
						"com"
					],
					"path": [
						"v2",
						"venues",
						"categories"
					],
					"query": [
						{
							"key": "client_id",
							"value": "{{client_id}}"
						},
						{
							"key": "client_secret",
							"value": "{{client_secret}}"
						},
						{
							"key": "v",
							"value": "{{v}}"
						},
						{
							"key": "locale",
							"value": "es",
							"description": "Undocumented. Allows API consumers to pull relevant information (if available) in the specified  ISO 639-1 2-Letter Language Code. If langauge information is not available, response will be returned in English. Supported locales can be found at https://developer.foursquare.com/docs/api/configuration/internationalization\n",
							"disabled": true
						}
					]
				}
			},
			"response": []
		},
		{
			"name": "Search for Venues (food)",
			"event": [
				{
					"listen": "test",
					"script": {
						"id": "6d02e36a-e088-4ebe-93b9-79c928cdc83a",
						"exec": [
							""
						],
						"type": "text/javascript"
					}
				}
			],
			"request": {
				"method": "GET",
				"header": [],
				"url": {
					"raw": "https://api.foursquare.com/v2/venues/search?client_id={{client_id}}&client_secret={{client_secret}}&v={{v}}&ll=52.3791, 4.9003&radius=500&categoryId=4d954b0ea243a5684a65b473",
					"protocol": "https",
					"host": [
						"api",
						"foursquare",
						"com"
					],
					"path": [
						"v2",
						"venues",
						"search"
					],
					"query": [
						{
							"key": "client_id",
							"value": "{{client_id}}"
						},
						{
							"key": "client_secret",
							"value": "{{client_secret}}"
						},
						{
							"key": "v",
							"value": "{{v}}"
						},
						{
							"key": "ll",
							"value": "52.3791, 4.9003",
							"description": "REQUIRED unless near is provided. Latitude and longitude of the user’s location."
						},
						{
							"key": "near",
							"value": "new york",
							"description": "REQUIRED unless ll is provided. A string naming a place in the world. If the near string is not geocodable, returns a failed_geocode error. Otherwise, searches within the bounds of the geocode and adds a geocode object to the response.",
							"disabled": true
						},
						{
							"key": "intent",
							"value": "checkin",
							"description": "Finds venues that the current user (or, for userless requests, a typical user) is likely to checkin to at the provided ll, at the current moment in time.",
							"disabled": true
						},
						{
							"key": "radius",
							"value": "500",
							"description": "Limit results to venues within this many meters of the specified location. Defaults to a city-wide area. Valid for requests with intent=checkin and categoryId or query. The maximum supported radius is currently 100,000 meters."
						},
						{
							"key": "query",
							"value": "peter luger steakhouse",
							"description": "A search term to be applied against venue names.\n",
							"disabled": true
						},
						{
							"key": "limit",
							"value": "20",
							"description": "Number of results to return, up to 50.",
							"disabled": true
						},
						{
							"key": "categoryId",
							"value": "4d954b0ea243a5684a65b473",
							"description": "A comma separated list of categories to limit results to. If you specify categoryId. Specifying a radius may improve results. If specifying a top-level category, all sub-categories will also match the query."
						},
						{
							"key": "alt",
							"value": "0",
							"description": "Altitude of the user’s location, in meters.",
							"disabled": true
						},
						{
							"key": "llAcc",
							"value": "10000",
							"description": "Accuracy of latitude and longitude, in meters.",
							"disabled": true
						},
						{
							"key": "categoryId",
							"value": "4d4b7105d754a06374d81259",
							"description": "food",
							"disabled": true
						}
					]
				}
			},
			"response": []
		},
		{
			"name": "Get Details of a Venue",
			"request": {
				"method": "GET",
				"header": [],
				"url": {
					"raw": "https://api.foursquare.com/v2/venues/{{VENUE_ID}}?client_id={{client_id}}&client_secret={{client_secret}}&v={{v}}",
					"protocol": "https",
					"host": [
						"api",
						"foursquare",
						"com"
					],
					"path": [
						"v2",
						"venues",
						"{{VENUE_ID}}"
					],
					"query": [
						{
							"key": "client_id",
							"value": "{{client_id}}"
						},
						{
							"key": "client_secret",
							"value": "{{client_secret}}"
						},
						{
							"key": "v",
							"value": "{{v}}"
						},
						{
							"key": "locale",
							"value": "ja",
							"description": "Allows API consumers to pull relevant information (if available) in the specified  ISO 639-1 2-Letter Language Code. If langauge information is not available, response will be returned in English.\n",
							"disabled": true
						}
					]
				}
			},
			"response": []
		}
	],
	"protocolProfileBehavior": {}
}